name,duration_avg,duration_stddev,count
alpine-certificates,49.5929184893617,13.4763913301019,282
alpine-stable,46.6835472795699,12.9786668292087,186
build:cfssl-self-sign,55.7066934411765,13.5774818587378,102
build:gitaly,948.243867068627,250.854109392003,102
build:gitlab-container-registry,218.514351813726,66.3523220443104,102
build:gitlab-elasticsearch-indexer,148.479829215686,21.4385044745737,102
build:gitlab-exiftool,69.133797,13.1655677357249,102
build:gitlab-exporter,125.632209901961,14.7521504863193,102
build:gitlab-go,215.615330568627,125.037643734134,102
build:gitlab-gomplate,63.5196640196079,12.5620885191488,102
build:gitlab-graphicsmagick,135.228356264706,12.6325193411033,102
build:gitlab-kas,166.310919490196,19.9354635206544,102
build:gitlab-logger,86.230394882353,13.7021571158767,102
build:gitlab-mailroom,83.5920988627451,13.525544692973,102
build:gitlab-metrics-exporter,98.0092789607844,13.6051891163513,102
build:gitlab-pages,131.849316362745,31.917911878528,102
build:gitlab-python,214.366854843137,13.7405681501323,102
build:gitlab-rails-ee,1030.03900815686,202.609026313346,102
build:gitlab-ruby,351.172882166667,19.8538695865117,102
build:gitlab-shell,162.018255892157,21.3503922406506,102
build:gitlab-sidekiq-ee,71.5758700196078,13.7746371244653,102
build:gitlab-toolbox-ee,141.75136672549,18.321479700484,102
build:gitlab-webservice-ee,70.9231412549019,13.9484660073648,102
build:gitlab-workhorse-ee,377.220680833333,131.75985899792,102
build:kubectl,62.6413663235294,12.9873374376381,102
build:postgresql,267.472674745098,16.0862886931236,102
certificates,47.8906736666667,8.47087503838043,6
cfssl-self-sign,54.1600516145833,14.1953681432097,288
container-scanning,16.5595118409091,8.37799058803639,44
danger-review,34.6493076,8.45770672961839,110
debian-stable,47.6664526989247,12.2544744531328,186
dependency_update,28.7678018333333,10.8944904531201,12
final-images-listing,78.5536644791667,57.091887611474,288
gitaly,548.830343256944,289.08375117918,288
gitlab-base,54.1369024270834,13.9736418250974,288
gitlab-container-registry,137.320946809028,47.2675541330943,288
gitlab-elasticsearch-indexer,96.2450891902174,53.3728695721459,184
gitlab-exiftool,67.3121697688172,14.0293322739328,186
gitlab-exporter,69.3973714409723,24.0642501937559,288
gitlab-geo-logcursor,198.529812195804,103.065474988192,286
gitlab-go,66.2753117741935,21.9340639602147,186
gitlab-gomplate,57.2078265860215,12.7634347934215,186
gitlab-graphicsmagick,144.317232043011,14.0099702780063,186
gitlab-kas,136.026272444445,54.7015204837418,288
gitlab-logger,69.1857886720431,13.8987633629914,186
gitlab-mailroom,75.9812478784722,23.8415297040589,288
gitlab-metrics-exporter,82.0953897096775,13.1377775104014,186
gitlab-pages,101.169388482639,24.6903352020051,288
gitlab-python,97.4568890913978,85.4632649366422,186
gitlab-rails-ce,792.35626107362,192.767527310637,163
gitlab-rails-ee,841.324978716783,313.553655189517,286
gitlab-ruby,113.129337836806,113.84336953299,288
gitlab-shell,134.507113253472,35.0694904062015,288
gitlab-sidekiq-ce,168.064507834356,56.6929838458234,163
gitlab-sidekiq-ee,237.797056842657,136.451895681996,286
gitlab-toolbox-ce,228.824053840491,64.1811634663893,163
gitlab-toolbox-ee,280.738928625874,99.9738608700325,286
gitlab-ubi-builder,142.633397745098,12.8629301501047,102
gitlab-webservice-ce,162.41617209816,58.1621661966692,163
gitlab-webservice-ee,214.117693423077,88.3233709683644,286
gitlab-workhorse-ce,373.786138079755,131.210849948826,163
gitlab-workhorse-ee,370.287004027972,127.501660214883,286
image-metrics,67.2622673639576,87.088900272685,283
kubectl,60.5905515590278,17.5684029680738,288
postgresql,284.642541360215,16.1308981284395,186
sync-images-artifact-registry,48.6475755,2.25771149999945,2
ubi-stable,52.0592231666667,12.609950099259,102